{
    "tier2": {
        "tier": 1,
        "total_seeds": 124,
        "seeds": [
            6,
            12,
            14,
            30,
            32,
            35,
            36,
            52,
            53,
            64,
            72,
            73,
            75,
            77,
            80,
            98,
            105,
            116,
            129,
            139,
            140,
            142,
            156,
            161,
            168,
            180,
            181,
            182,
            189,
            192,
            215,
            219,
            224,
            225,
            226,
            234,
            242,
            245,
            253,
            260,
            268,
            271,
            277,
            299,
            303,
            308,
            323,
            366,
            385,
            407,
            429,
            456,
            460,
            462,
            472,
            503,
            558,
            571,
            574,
            608,
            634,
            648,
            660,
            677,
            686,
            690,
            693,
            695,
            706,
            736,
            742,
            746,
            752,
            773,
            807,
            841,
            865,
            888,
            901,
            969,
            1084,
            1130,
            1145,
            1147,
            1171,
            1172,
            1213,
            1285,
            1361,
            1366,
            1456,
            1489,
            1649,
            1713,
            1758,
            1823,
            2003,
            2047,
            2109,
            2231,
            2264,
            2339,
            2454,
            2675,
            2962,
            3326,
            3347,
            4028,
            4358,
            4382,
            4933,
            5054,
            5129,
            5468,
            6583,
            7299,
            8117,
            10381,
            17554,
            18886,
            26504,
            30736,
            52740,
            81342
        ],
        "values": [
            0,
            1,
            2,
            4,
            8,
            16,
            17,
            67,
            96,
            181,
            256,
            257,
            290,
            511,
            513,
            515,
            516,
            771,
            773,
            785,
            1024,
            1029,
            1281,
            1284,
            1288,
            1542,
            1543,
            1555,
            1798,
            1799,
            1801,
            1826,
            2050,
            2057,
            2083,
            2312,
            2313,
            2314,
            2316,
            2571,
            2572,
            2828,
            3083,
            3352,
            4096,
            4353,
            4357,
            4641,
            4879,
            5133,
            5149,
            5655,
            6157,
            6169,
            6418,
            6684,
            6687,
            6693,
            7200,
            7201,
            7208,
            7709,
            7936,
            7975,
            8748,
            8988,
            9262,
            9767,
            10016,
            10281,
            10804,
            11312,
            12596,
            12609,
            12833,
            12850,
            12929,
            13055,
            13108,
            13154,
            13364,
            13622,
            14121,
            14136,
            14386,
            14650,
            14653,
            15406,
            17073,
            17153,
            17220,
            17734,
            18248,
            18758,
            18762,
            19014,
            20833,
            21201,
            21332,
            21846,
            22360,
            22874,
            25444,
            25958,
            26472,
            26986,
            28948,
            29314,
            29556,
            30070,
            30584,
            31098,
            32001,
            32770,
            32771,
            33668,
            34182,
            34696,
            37281,
            49429,
            50176,
            56064,
            61476,
            65472,
            65476,
            65496,
            65499,
            65504
        ],
        "position_seeds": {
            "0": 1649,
            "1": 26504,
            "2": 385,
            "3": 677,
            "4": 5468,
            "5": 299,
            "6": 32,
            "7": 105,
            "8": 503,
            "9": 1366,
            "10": 226,
            "11": 2339,
            "12": 366,
            "13": 14,
            "14": 736,
            "15": 168,
            "16": 1285,
            "17": 1489,
            "18": 4933,
            "19": 1758,
            "20": 2109,
            "21": 608,
            "22": 1361,
            "23": 30736,
            "24": 73,
            "25": 571,
            "26": 2962,
            "27": 462,
            "28": 245,
            "29": 52,
            "30": 1823,
            "31": 219,
            "32": 36,
            "33": 271,
            "34": 6583,
            "35": 224,
            "36": 10381,
            "37": 156,
            "38": 648,
            "39": 142,
            "40": 180,
            "41": 17554,
            "42": 706,
            "43": 2675,
            "44": 3326,
            "45": 72,
            "46": 2003,
            "47": 4358,
            "48": 2264,
            "49": 303,
            "50": 1171,
            "51": 901,
            "52": 8117,
            "53": 746,
            "54": 80,
            "55": 660,
            "56": 634,
            "57": 648,
            "58": 5054,
            "59": 53,
            "60": 1172,
            "61": 277,
            "62": 407,
            "63": 693,
            "64": 253,
            "65": 1130,
            "66": 4028,
            "67": 460,
            "68": 807,
            "69": 2231,
            "70": 268,
            "71": 1145,
            "72": 215,
            "73": 574,
            "74": 189,
            "75": 5129,
            "76": 323,
            "77": 742,
            "78": 225,
            "79": 129,
            "80": 6,
            "81": 242,
            "82": 752,
            "83": 865,
            "84": 558,
            "85": 2454,
            "86": 260,
            "87": 182,
            "88": 75,
            "89": 456,
            "90": 64,
            "91": 116,
            "92": 1456,
            "93": 429,
            "94": 686,
            "95": 1713,
            "96": 1147,
            "97": 773,
            "98": 969,
            "99": 161,
            "100": 690,
            "101": 234,
            "102": 841,
            "103": 308,
            "104": 3347,
            "105": 140,
            "106": 4382,
            "107": 181,
            "108": 77,
            "109": 52740,
            "110": 660,
            "111": 1213,
            "112": 30,
            "113": 12,
            "114": 7299,
            "115": 807,
            "116": 98,
            "117": 192,
            "118": 81342,
            "119": 695,
            "120": 2047,
            "121": 116,
            "122": 35,
            "123": 888,
            "124": 139,
            "125": 18886,
            "126": 1084,
            "127": 472
        },
        "position_values": {
            "0": 181,
            "1": 10281,
            "2": 7208,
            "3": 511,
            "4": 29314,
            "5": 3352,
            "6": 8748,
            "7": 1288,
            "8": 30584,
            "9": 290,
            "10": 2571,
            "11": 1826,
            "12": 9767,
            "13": 17153,
            "14": 10016,
            "15": 5149,
            "16": 10804,
            "17": 6169,
            "18": 7975,
            "19": 17734,
            "20": 11312,
            "21": 1799,
            "22": 773,
            "23": 6693,
            "24": 12850,
            "25": 56064,
            "26": 17220,
            "27": 14653,
            "28": 32001,
            "29": 12929,
            "30": 2083,
            "31": 4879,
            "32": 17073,
            "33": 2,
            "34": 1281,
            "35": 1024,
            "36": 18248,
            "37": 17,
            "38": 50176,
            "39": 26472,
            "40": 1555,
            "41": 257,
            "42": 31098,
            "43": 21846,
            "44": 3083,
            "45": 6687,
            "46": 515,
            "47": 14386,
            "48": 785,
            "49": 4096,
            "50": 33668,
            "51": 7200,
            "52": 21332,
            "53": 14136,
            "54": 32771,
            "55": 16,
            "56": 19014,
            "57": 4,
            "58": 65496,
            "59": 4641,
            "60": 4353,
            "61": 26986,
            "62": 7936,
            "63": 13055,
            "64": 2572,
            "65": 21201,
            "66": 25444,
            "67": 7201,
            "68": 6418,
            "69": 4357,
            "70": 28948,
            "71": 18762,
            "72": 18758,
            "73": 5133,
            "74": 9262,
            "75": 65476,
            "76": 1029,
            "77": 2314,
            "78": 513,
            "79": 34696,
            "80": 2050,
            "81": 37281,
            "82": 20833,
            "83": 65499,
            "84": 12833,
            "85": 49429,
            "86": 29556,
            "87": 1798,
            "88": 14121,
            "89": 2057,
            "90": 0,
            "91": 2312,
            "92": 1801,
            "93": 2828,
            "94": 15406,
            "95": 2313,
            "96": 22874,
            "97": 14650,
            "98": 7709,
            "99": 67,
            "100": 1,
            "101": 516,
            "102": 65504,
            "103": 6157,
            "104": 34182,
            "105": 771,
            "106": 12596,
            "107": 1542,
            "108": 256,
            "109": 32770,
            "110": 13364,
            "111": 13108,
            "112": 25958,
            "113": 12609,
            "114": 6684,
            "115": 13154,
            "116": 8,
            "117": 5655,
            "118": 13622,
            "119": 8988,
            "120": 1284,
            "121": 61476,
            "122": 65472,
            "123": 30070,
            "124": 96,
            "125": 1543,
            "126": 22360,
            "127": 2316
        },
        "value_positions": {
            "0": 90,
            "1": 100,
            "2": 33,
            "4": 57,
            "8": 116,
            "16": 55,
            "17": 37,
            "67": 99,
            "96": 124,
            "181": 0,
            "256": 108,
            "257": 41,
            "290": 9,
            "511": 3,
            "513": 78,
            "515": 46,
            "516": 101,
            "771": 105,
            "773": 22,
            "785": 48,
            "1024": 35,
            "1029": 76,
            "1281": 34,
            "1284": 120,
            "1288": 7,
            "1542": 107,
            "1543": 125,
            "1555": 40,
            "1798": 87,
            "1799": 21,
            "1801": 92,
            "1826": 11,
            "2050": 80,
            "2057": 89,
            "2083": 30,
            "2312": 91,
            "2313": 95,
            "2314": 77,
            "2316": 127,
            "2571": 10,
            "2572": 64,
            "2828": 93,
            "3083": 44,
            "3352": 5,
            "4096": 49,
            "4353": 60,
            "4357": 69,
            "4641": 59,
            "4879": 31,
            "5133": 73,
            "5149": 15,
            "5655": 117,
            "6157": 103,
            "6169": 17,
            "6418": 68,
            "6684": 114,
            "6687": 45,
            "6693": 23,
            "7200": 51,
            "7201": 67,
            "7208": 2,
            "7709": 98,
            "7936": 62,
            "7975": 18,
            "8748": 6,
            "8988": 119,
            "9262": 74,
            "9767": 12,
            "10016": 14,
            "10281": 1,
            "10804": 16,
            "11312": 20,
            "12596": 106,
            "12609": 113,
            "12833": 84,
            "12850": 24,
            "12929": 29,
            "13055": 63,
            "13108": 111,
            "13154": 115,
            "13364": 110,
            "13622": 118,
            "14121": 88,
            "14136": 53,
            "14386": 47,
            "14650": 97,
            "14653": 27,
            "15406": 94,
            "17073": 32,
            "17153": 13,
            "17220": 26,
            "17734": 19,
            "18248": 36,
            "18758": 72,
            "18762": 71,
            "19014": 56,
            "20833": 82,
            "21201": 65,
            "21332": 52,
            "21846": 43,
            "22360": 126,
            "22874": 96,
            "25444": 66,
            "25958": 112,
            "26472": 39,
            "26986": 61,
            "28948": 70,
            "29314": 4,
            "29556": 86,
            "30070": 123,
            "30584": 8,
            "31098": 42,
            "32001": 28,
            "32770": 109,
            "32771": 54,
            "33668": 50,
            "34182": 104,
            "34696": 79,
            "37281": 81,
            "49429": 85,
            "50176": 38,
            "56064": 25,
            "61476": 121,
            "65472": 122,
            "65476": 75,
            "65496": 58,
            "65499": 83,
            "65504": 102
        },
        "seed_positions_counter": {
            "648": 2,
            "116": 2,
            "807": 2,
            "660": 2,
            "139": 1,
            "182": 1,
            "1456": 1,
            "2962": 1,
            "7299": 1,
            "1084": 1,
            "18886": 1,
            "690": 1,
            "841": 1,
            "1489": 1,
            "2003": 1,
            "695": 1,
            "1285": 1,
            "2264": 1,
            "277": 1,
            "192": 1,
            "35": 1,
            "234": 1,
            "456": 1,
            "429": 1,
            "969": 1,
            "4382": 1,
            "52740": 1,
            "634": 1,
            "161": 1,
            "1361": 1,
            "215": 1,
            "574": 1,
            "686": 1,
            "2109": 1,
            "1171": 1,
            "677": 1,
            "156": 1,
            "3347": 1,
            "52": 1,
            "865": 1,
            "736": 1,
            "5054": 1,
            "706": 1,
            "901": 1,
            "407": 1,
            "268": 1,
            "503": 1,
            "773": 1,
            "253": 1,
            "1366": 1,
            "271": 1,
            "77": 1,
            "693": 1,
            "189": 1,
            "30": 1,
            "608": 1,
            "242": 1,
            "219": 1,
            "129": 1,
            "224": 1,
            "140": 1,
            "181": 1,
            "3326": 1,
            "746": 1,
            "308": 1,
            "36": 1,
            "142": 1,
            "558": 1,
            "245": 1,
            "1172": 1,
            "180": 1,
            "1213": 1,
            "303": 1,
            "260": 1,
            "75": 1,
            "2047": 1,
            "462": 1,
            "1147": 1,
            "32": 1,
            "80": 1,
            "1713": 1,
            "4358": 1,
            "64": 1,
            "225": 1,
            "17554": 1,
            "8117": 1,
            "12": 1,
            "26504": 1,
            "30736": 1,
            "53": 1,
            "5129": 1,
            "1130": 1,
            "73": 1,
            "2675": 1,
            "226": 1,
            "10381": 1,
            "2231": 1,
            "14": 1,
            "460": 1,
            "168": 1,
            "385": 1,
            "72": 1,
            "4028": 1,
            "1823": 1,
            "98": 1,
            "6": 1,
            "6583": 1,
            "2454": 1,
            "1758": 1,
            "2339": 1,
            "5468": 1,
            "1649": 1,
            "323": 1,
            "366": 1,
            "105": 1,
            "81342": 1,
            "1145": 1,
            "571": 1,
            "4933": 1,
            "472": 1,
            "742": 1,
            "299": 1,
            "752": 1,
            "888": 1
        }
    }
}